<?xml version="1.0" encoding="UTF-8"?>
<svg width="30px" height="31px" viewBox="0 0 30 31" version="1.1" xmlns="http://www.w3.org/2000/svg" xmlns:xlink="http://www.w3.org/1999/xlink">
    <!-- Generator: Sketch 51.1 (57501) - http://www.bohemiancoding.com/sketch -->
    <title>contact</title>
    <desc>Created with Sketch.</desc>
    <defs></defs>
    <g id="Page-1" stroke="none" stroke-width="1" fill="none" fill-rule="evenodd">
        <g id="11.-Billing---03.-Statements" transform="translate(-24.000000, -156.000000)">
            <g id="contact" transform="translate(24.000000, 156.000000)">
                <ellipse id="Oval" fill-opacity="0.1" fill="#368AFC" fill-rule="nonzero" cx="14.952" cy="15.1461819" rx="14.952" ry="15.1461819"></ellipse>
                <path d="M15.4209215,20.6516225 C14.423532,20.6516225 13.4726829,21.291225 13.3860584,22.0203097 C13.3553496,22.2841429 13.4337215,22.523188 13.6193777,22.7293859 C13.9012584,23.0425732 14.3986619,23.2294852 14.9498478,23.2294852 C15.9780022,23.2294852 16.9196443,22.6033884 17.005932,21.8622431 C17.0435461,21.5461101 16.8991531,21.3106221 16.7715461,21.1684511 C16.4807952,20.8448705 15.975925,20.6516225 15.4209215,20.6516225 Z M14.9498478,24.5955602 C13.9973145,24.5955602 13.1369636,24.2466911 12.5892584,23.638324 C12.143504,23.1432267 11.9397145,22.5124612 12.015504,21.8622987 C12.1843741,20.4408671 13.7119531,19.2857143 15.4209215,19.2857143 C16.3778899,19.2857143 17.2458759,19.6411417 17.8025075,20.2608469 C18.2484864,20.7572781 18.4522759,21.3821522 18.3764303,22.0204208 C18.2082338,23.4636949 16.703111,24.5955602 14.9498478,24.5955602 Z" id="Fill-1" stroke="#D0021B" stroke-width="0.4" fill="#D0021B"></path>
                <path d="M13.4372214,14.1268363 C13.299453,14.9270064 13.4187512,15.5880624 13.78226,16.0386965 C14.0944003,16.4258595 14.5879301,16.6477306 15.2092354,16.6806334 C15.6357337,16.7029205 16.1421758,16.5820919 16.5993828,16.3486047 C16.83186,16.2298881 17.0196494,16.0991108 17.1567442,15.9780043 C16.6550179,15.4900211 16.3004354,14.6175984 16.6508073,12.624315 C16.6512003,12.6218696 16.6517056,12.6194241 16.6520986,12.6170342 C16.6577687,12.5870216 16.6735442,12.5139353 16.7519723,12.1541727 C16.8672845,11.6248944 17.0817407,10.6403134 17.314667,9.54307378 C17.4737687,8.74657188 17.3719863,8.08251462 17.0204354,7.62248767 C16.7185126,7.22743252 16.2312144,6.9927782 15.6109758,6.94386873 C15.185488,6.9104102 14.6756775,7.01817778 14.2124635,7.23965988 C13.9769547,7.35231841 13.7856845,7.47814915 13.6454459,7.59564304 C14.1340915,8.09652052 14.4655442,8.9777803 14.0625687,10.9612818 C14.0620635,10.9636161 14.0615582,10.9658393 14.0611652,10.9681736 C14.0390459,11.0735513 13.5122249,13.7223327 13.4372214,14.1268363 Z M15.3163512,18.0494317 C15.2560565,18.0494317 13.7159582,18.1077896 12.7040845,16.8911664 C12.0757056,16.1356262 11.8707372,15.0893525 12.0779512,13.892182 C12.0784565,13.8896254 12.0788494,13.8871243 12.0793547,13.8846233 C12.1489126,13.5086873 12.6750038,10.8606283 12.71026,10.6907235 C13.0872986,8.83388641 12.690274,8.55493567 12.520674,8.43571883 C12.4105828,8.35840852 12.2599021,8.25247504 12.1566038,8.06350662 C12.0732354,7.91072009 11.9674108,7.59836641 12.1884915,7.21376009 C12.6668073,6.34572809 14.2281828,5.46391252 15.7207301,5.58212894 C16.7300775,5.66171799 17.5825126,6.09367757 18.1209547,6.79830746 C18.7173898,7.5788582 18.9064705,8.6211302 18.6675933,9.81252052 C18.667088,9.81502157 18.6665266,9.81752262 18.6659652,9.81996809 C18.4319723,10.9224321 18.2165617,11.9110148 18.1009126,12.4421828 C18.0501056,12.6752809 18.0173196,12.8252885 18.0090108,12.8658611 C17.6831723,14.7265887 18.0868214,14.9945904 18.2592845,15.1091386 C18.3713407,15.1836144 18.5248845,15.2856018 18.6330108,15.4718468 C18.7205898,15.6224102 18.8345547,15.9318738 18.6236354,16.3220936 C18.1866951,17.1667268 16.75186,18.0493205 15.3163512,18.0494317 Z" id="Fill-2" stroke="#D0021B" stroke-width="0.4" fill="#D0021B" transform="translate(15.384024, 11.810654) scale(-1, -1) translate(-15.384024, -11.810654) "></path>
            </g>
        </g>
    </g>
</svg>